<?xml version="1.0" encoding="UTF-8" standalone="no"?>
<!DOCTYPE svg PUBLIC "-//W3C//DTD SVG 1.1//EN" "http://www.w3.org/Graphics/SVG/1.1/DTD/svg11.dtd">
<svg width="100%" height="100%" viewBox="0 0 872 227" version="1.1" xmlns="http://www.w3.org/2000/svg" xmlns:xlink="http://www.w3.org/1999/xlink" xml:space="preserve" xmlns:serif="http://www.serif.com/" style="fill-rule:evenodd;clip-rule:evenodd;stroke-linejoin:round;stroke-miterlimit:2;">
    <path d="M0,227L871.14,227C871.14,227 860.82,190.93 829.91,180.61C811.543,174.471 774.857,186.06 774.857,186.06C774.857,186.06 747.54,134.23 701.15,118.78C654.76,103.33 618.7,118.78 618.7,118.78C618.7,118.78 582.31,31.17 546.3,15.69C510.29,0.21 473.97,-10.06 422.61,15.69C371.25,41.44 345.28,103.31 345.28,103.31C345.28,103.31 262.82,77.55 211.28,108.47C159.74,139.39 159.73,165.08 159.73,165.08C159.73,165.08 134,139.29 67,165.08C0,190.87 0,227 0,227Z" style="fill:rgb(42,52,98);fill-rule:nonzero;"/>
</svg>
